{
  "header": {
    "blocks": ["header-layout.desktop", "header-layout.mobile"]
  },
  "header.full": {
    "blocks": ["header-layout.desktop", "header-layout.mobile"]
  },
  "header-layout.desktop": {
    "children": [
      "sticky-layout#desktop"
    ]
  },
  "sticky-layout#desktop": {
    "props": {
      "blockClass": "sticky-header"
    },
    "children": ["flex-layout.row#desktop"]
  },
  "flex-layout.row#desktop": {
    "props": {
      "horizontalAlign": "center",
      "verticalAlign": "center",
      "preventHorizontalStretch": true,
      "preventVerticalStretch": true,
      "fullWidth": true
    },
    "children": [
      "flex-layout.col#logo-desktop",
      "flex-layout.col#spacer",
      "search-bar",
      "locale-switcher",
      "login",
      "minicart.v2"
    ]
  },
  "flex-layout.col#spacer": {
    "props": {
      "width": "grow"
    }
  },
  "flex-layout.col#logo-desktop": {
    "props": {
      "verticalAlign": "middle"
    },
    "children": ["logo"]
  },
  "logo": {
    "props": {
      "title": "Logo",
      "href": "/",
      "url": "https://images.unsplash.com/photo-1567446537708-ac4aa75c9c28?ixid=MnwxMjA3fDB8MHxwaG90by1wYWdlfHx8fGVufDB8fHx8&ixlib=rb-1.2.1&auto=format&fit=crop&w=634&q=80",
      "width": "80"
    }
  },
  "header-layout.mobile": {
    "children": ["sticky-layout#mobile"]
  },
  "sticky-layout#mobile": {
    "children": ["flex-layout.row#mobile"]
  },
  "flex-layout.row#mobile": {
    "children": [
      "drawer",
      "logo",
      "flex-layout.col#spacer",
      "login",
      "minicart.v2"
    ],
    "props": {
      "blockClass": "main-header-mobile",
      "preventHorizontalStretch": true,
      "preserveLayoutOnMobile": true,
      "fullWidth": true
    }
  },
  "drawer": {
    "children": []
  }
}