{
    "image#brand1": {
        "props": {
            "imageUrl": "https://appliancetheme.vteximg.com.br/arquivos/flatflat-brand-logo-square1.png",
            "maxWidth": "100%"
        }
    },
    "image#brand2": {
        "props": {
            "imageUrl": "https://appliancetheme.vteximg.com.br/arquivos/flatflat-brand-logo-square2.png",
            "maxWidth": "100%"
        }    
    },
    "image#brand3": {
        "props": {
            "imageUrl": "https://appliancetheme.vteximg.com.br/arquivos/flatflat-brand-logo-square3.png",
            "maxWidth": "100%"
        }    
    },
    "image#brand4": {
        "props": {
            "imageUrl": "https://appliancetheme.vteximg.com.br/arquivos/flatflat-brand-logo-square4.png",
            "maxWidth": "100%"
        }    
    },
    "image#brand5": {
        "props": {
            "imageUrl": "https://appliancetheme.vteximg.com.br/arquivos/flatflat-brand-logo-square5.png",
            "maxWidth": "100%"
        }    
    },
    "image#brand6": {
        "props": {
            "imageUrl": "https://appliancetheme.vteximg.com.br/arquivos/flatflat-brand-logo-square6.png",
            "maxWidth": "100%"
        }
    }
}